*** Life<ConwayCell> 10x8 ***

Generation = 0, Population = 16.
.....*..
....*..*
..**.*..
...*....
........
*.......
......*.
....*...
..**.*.*
.*...*..

Generation = 5, Population = 20.
.....*..
...***..
..*..*..
........
..*..*..
...***..
......*.
.**...**
.**...**
........

Generation = 10, Population = 13.
........
......*.
.....***
.....**.
......**
.....*.*
........
....*...
.....**.
........

*** Life<ConwayCell> 7x15 ***

Generation = 0, Population = 6.
...*...........
...............
........*......
...............
...............
.............*.
......*.*..*...

Generation = 9, Population = 0.
...............
...............
...............
...............
...............
...............
...............

*** Life<ConwayCell> 15x19 ***

Generation = 0, Population = 17.
*...*..............
...................
........*....*.***.
..*.*..............
...................
...................
...................
........*.....*....
........*......*...
...................
*..................
......*.......*....
...................
...................
.........*.........

Generation = 4, Population = 3.
...................
...................
...............***.
...................
...................
...................
...................
...................
...................
...................
...................
...................
...................
...................
...................

Generation = 8, Population = 3.
...................
...................
...............***.
...................
...................
...................
...................
...................
...................
...................
...................
...................
...................
...................
...................

Generation = 12, Population = 3.
...................
...................
...............***.
...................
...................
...................
...................
...................
...................
...................
...................
...................
...................
...................
...................

Generation = 16, Population = 3.
...................
...................
...............***.
...................
...................
...................
...................
...................
...................
...................
...................
...................
...................
...................
...................

Generation = 20, Population = 3.
...................
...................
...............***.
...................
...................
...................
...................
...................
...................
...................
...................
...................
...................
...................
...................

*** Life<ConwayCell> 17x8 ***

Generation = 0, Population = 12.
*...*...
...*....
........
.....**.
........
........
.*......
..*.*...
........
.*....*.
........
........
........
........
........
*..*....
........

*** Life<ConwayCell> 19x4 ***

Generation = 0, Population = 9.
....
.*..
....
....
....
*...
....
....
.*..
....
....
*...
.*.*
.**.
...*
....
....
....
....

Generation = 4, Population = 3.
....
....
....
....
....
....
....
....
....
....
....
.*..
*...
*...
....
....
....
....
....

Generation = 8, Population = 0.
....
....
....
....
....
....
....
....
....
....
....
....
....
....
....
....
....
....
....

Generation = 12, Population = 0.
....
....
....
....
....
....
....
....
....
....
....
....
....
....
....
....
....
....
....

Generation = 16, Population = 0.
....
....
....
....
....
....
....
....
....
....
....
....
....
....
....
....
....
....
....

Generation = 20, Population = 0.
....
....
....
....
....
....
....
....
....
....
....
....
....
....
....
....
....
....
....

Generation = 24, Population = 0.
....
....
....
....
....
....
....
....
....
....
....
....
....
....
....
....
....
....
....

*** Life<ConwayCell> 2x4 ***

Generation = 0, Population = 7.
**.*
****

Generation = 6, Population = 0.
....
....

Generation = 12, Population = 0.
....
....

*** Life<ConwayCell> 9x6 ***

Generation = 0, Population = 10.
*.*..*
......
..*...
......
..*...
......
..*...
.***.*
......

*** Life<ConwayCell> 8x14 ***

Generation = 0, Population = 13.
*......*....*.
...........*..
..............
.*.......*....
...*..*.......
....*.........
..*.*........*
...........*..

Generation = 11, Population = 0.
..............
..............
..............
..............
..............
..............
..............
..............

Generation = 22, Population = 0.
..............
..............
..............
..............
..............
..............
..............
..............

*** Life<ConwayCell> 2x15 ***

Generation = 0, Population = 13.
......***..***.
.*..**.*..***..

Generation = 13, Population = 0.
...............
...............

*** Life<ConwayCell> 7x6 ***

Generation = 0, Population = 1.
..*...
......
......
......
......
......
......

Generation = 9, Population = 0.
......
......
......
......
......
......
......

Generation = 18, Population = 0.
......
......
......
......
......
......
......

*** Life<ConwayCell> 15x15 ***

Generation = 0, Population = 19.
..*............
......*........
.....*.....*...
.*.............
...........*...
...............
*.............*
.............*.
.........*.....
.......*.......
...............
...*........*..
......*..*.....
.......*...*...
.*..*..........

Generation = 6, Population = 0.
...............
...............
...............
...............
...............
...............
...............
...............
...............
...............
...............
...............
...............
...............
...............

Generation = 12, Population = 0.
...............
...............
...............
...............
...............
...............
...............
...............
...............
...............
...............
...............
...............
...............
...............

Generation = 18, Population = 0.
...............
...............
...............
...............
...............
...............
...............
...............
...............
...............
...............
...............
...............
...............
...............

Generation = 24, Population = 0.
...............
...............
...............
...............
...............
...............
...............
...............
...............
...............
...............
...............
...............
...............
...............

*** Life<ConwayCell> 20x1 ***

Generation = 0, Population = 13.
*
.
*
*
*
.
.
.
*
.
*
*
.
*
*
*
*
*
*
.

Generation = 14, Population = 0.
.
.
.
.
.
.
.
.
.
.
.
.
.
.
.
.
.
.
.
.

*** Life<ConwayCell> 11x5 ***

Generation = 0, Population = 14.
.*...
..*..
.*...
.*...
*....
.*...
.*...
*..*.
...**
.*...
..**.

Generation = 3, Population = 1.
.....
.....
.....
.....
.....
.....
.....
.....
.....
...*.
.....

Generation = 6, Population = 0.
.....
.....
.....
.....
.....
.....
.....
.....
.....
.....
.....

Generation = 9, Population = 0.
.....
.....
.....
.....
.....
.....
.....
.....
.....
.....
.....

*** Life<ConwayCell> 7x10 ***

Generation = 0, Population = 16.
*.........
........*.
*........*
**.**....*
*...*.....
..**....*.
...*...*..

*** Life<ConwayCell> 15x8 ***

Generation = 0, Population = 14.
........
....*...
......*.
........
...*....
........
.....*..
........
.**.....
.*...*..
*..**..*
.......*
........
........
......*.

Generation = 11, Population = 0.
........
........
........
........
........
........
........
........
........
........
........
........
........
........
........

Generation = 22, Population = 0.
........
........
........
........
........
........
........
........
........
........
........
........
........
........
........

*** Life<ConwayCell> 1x15 ***

Generation = 0, Population = 6.
.*..**..**..*..

Generation = 10, Population = 0.
...............

Generation = 20, Population = 0.
...............

*** Life<ConwayCell> 12x10 ***

Generation = 0, Population = 17.
.....*..*.
...*......
....*...*.
..*.......
..........
........*.
..........
....*...*.
.*..*.....
*.........
*....*....
.....*.**.

Generation = 15, Population = 0.
..........
..........
..........
..........
..........
..........
..........
..........
..........
..........
..........
..........

*** Life<ConwayCell> 2x16 ***

Generation = 0, Population = 15.
.**..****......*
.*..*.*.*.**.*.*

Generation = 13, Population = 12.
.**..**.**......
.**..**.**......

Generation = 26, Population = 12.
.**..**.**......
.**..**.**......

*** Life<ConwayCell> 18x17 ***

Generation = 0, Population = 17.
.............*...
.................
.................
........*.....*..
.................
.........*.......
..*.....*.....*..
......*.......*..
......*..........
.................
.......*.........
...*.............
.................
*................
......*..........
.................
*......*.........
.*...............

*** Life<ConwayCell> 4x13 ***

Generation = 0, Population = 16.
...**...**.*.
.*.*......*.*
....***...*..
..*.**.......

*** Life<ConwayCell> 9x10 ***

Generation = 0, Population = 10.
*.....*...
.*........
*.........
*.........
....**....
..........
......*...
..........
....**....

Generation = 9, Population = 4.
..........
**........
**........
..........
..........
..........
..........
..........
..........

Generation = 18, Population = 4.
..........
**........
**........
..........
..........
..........
..........
..........
..........

*** Life<ConwayCell> 5x9 ***

Generation = 0, Population = 5.
....**...
.........
........*
.........
..*...*..

*** Life<ConwayCell> 18x6 ***

Generation = 0, Population = 9.
......
......
....*.
.....*
.*....
.*....
...*..
......
.....*
......
.*....
..*...
.*....
......
......
......
......
......

Generation = 4, Population = 0.
......
......
......
......
......
......
......
......
......
......
......
......
......
......
......
......
......
......

*** Life<ConwayCell> 10x15 ***

Generation = 0, Population = 5.
.......*.......
..............*
...............
...............
...*...........
...............
...............
...........*...
...*...........
...............

Generation = 4, Population = 0.
...............
...............
...............
...............
...............
...............
...............
...............
...............
...............

Generation = 8, Population = 0.
...............
...............
...............
...............
...............
...............
...............
...............
...............
...............

Generation = 12, Population = 0.
...............
...............
...............
...............
...............
...............
...............
...............
...............
...............

Generation = 16, Population = 0.
...............
...............
...............
...............
...............
...............
...............
...............
...............
...............

*** Life<ConwayCell> 6x15 ***

Generation = 0, Population = 16.
..........*....
..*..*...*.....
*..**..........
............*..
...............
*..***..*..**.*

Generation = 7, Population = 9.
...............
...**..........
..*..*.........
...**..........
...........***.
...............

*** Life<ConwayCell> 16x18 ***

Generation = 0, Population = 15.
..................
.....*...*.......*
..............*...
.............*.*..
............*.....
...*............*.
..................
..................
.......*.......*..
..................
..*....*...*......
..................
.............*....
..................
..................
..................

Generation = 11, Population = 4.
..................
..................
.............**...
.............**...
..................
..................
..................
..................
..................
..................
..................
..................
..................
..................
..................
..................

Generation = 22, Population = 4.
..................
..................
.............**...
.............**...
..................
..................
..................
..................
..................
..................
..................
..................
..................
..................
..................
..................

*** Life<ConwayCell> 10x10 ***

Generation = 0, Population = 8.
..........
.....*....
..........
....*...*.
.....*....
........**
..........
..*.......
..........
*.........

Generation = 6, Population = 0.
..........
..........
..........
..........
..........
..........
..........
..........
..........
..........

Generation = 12, Population = 0.
..........
..........
..........
..........
..........
..........
..........
..........
..........
..........

Generation = 18, Population = 0.
..........
..........
..........
..........
..........
..........
..........
..........
..........
..........
