30

10 10
15
9 2
7 6
4 5
7 1
4 8
3 5
5 1
9 1
1 0
8 3
8 0
6 7
3 6
9 3
0 7
10 1

10 10
14
1 1
4 9
4 8
1 9
1 6
5 5
9 6
6 3
3 9
8 6
3 9
2 8
8 5
1 4
10 1

10 10
12
2 4
2 2
0 7
6 9
5 8
8 2
4 8
6 7
7 3
9 8
3 3
2 2
10 1

10 10
14
8 5
3 8
4 1
3 3
6 0
7 9
2 1
1 1
9 4
2 0
4 1
2 8
0 0
5 3
10 1

10 10
11
6 4
0 3
2 9
5 4
6 8
8 2
4 1
2 5
9 8
5 9
7 1
10 1

10 10
6
1 8
9 9
9 1
5 2
0 2
1 1
10 1

10 10
14
8 4
4 2
8 6
5 8
0 8
8 0
1 9
7 5
7 4
3 9
4 1
3 0
7 2
9 6
10 1

10 10
11
9 9
4 7
3 9
0 8
8 3
7 9
8 1
8 5
5 5
7 2
3 0
10 1

10 10
5
7 7
1 2
9 1
3 6
0 9
10 1

10 10
8
6 4
6 3
1 2
8 5
0 0
7 5
2 6
4 9
10 1

10 10
11
0 4
3 4
9 1
7 7
4 9
8 4
9 2
8 9
3 1
8 7
7 3
10 1

10 10
5
6 2
3 1
9 3
0 3
9 1
10 1

10 10
11
5 7
6 9
6 3
2 3
6 4
3 3
9 3
1 4
2 3
7 6
6 9
10 1

10 10
13
9 9
3 9
7 1
6 2
2 1
1 7
3 0
8 1
1 8
5 3
4 2
2 1
9 9
10 1

10 10
8
4 1
4 1
6 0
4 9
0 3
7 5
4 3
2 3
10 1

10 10
13
1 4
5 9
4 1
3 1
5 2
7 7
7 2
9 2
6 9
1 6
1 9
6 0
9 4
10 1

10 10
5
5 4
7 7
4 0
0 0
6 7
10 1

10 10
10
9 0
1 8
5 1
2 8
8 5
7 9
2 1
7 5
3 3
5 6
10 1

10 10
5
0 2
7 4
4 0
3 8
6 1
10 1

10 10
15
5 6
5 5
5 3
0 0
5 3
4 6
6 7
5 1
1 3
3 3
7 0
2 2
3 4
4 9
4 5
10 1

10 10
15
9 2
7 6
4 7
2 2
9 4
0 0
5 4
0 9
6 1
0 7
8 4
5 7
7 2
4 8
1 5
10 1

10 10
10
7 3
1 5
0 1
7 0
6 5
4 2
0 1
0 0
9 8
0 1
10 1

10 10
5
5 6
0 2
3 8
6 3
6 5
10 1

10 10
11
1 1
8 9
3 7
8 7
2 4
2 1
4 1
0 2
8 6
9 3
3 2
10 1

10 10
15
1 9
6 7
4 6
0 0
3 1
1 4
6 9
0 9
4 2
5 5
3 7
9 4
8 7
2 5
9 5
10 1

10 10
8
6 8
3 9
5 5
6 2
7 2
5 3
5 2
6 2
10 1

10 10
11
6 8
3 4
8 2
4 2
0 3
4 0
8 0
1 5
1 3
9 0
0 2
10 1

10 10
8
3 1
5 3
2 2
5 2
7 8
2 8
5 2
0 9
10 1

10 10
8
8 5
2 8
7 7
1 8
4 8
8 9
0 8
2 3
10 1

10 10
12
0 1
6 1
3 9
8 6
0 3
1 8
2 7
8 3
8 3
0 2
0 3
0 7
10 1
