*** Life<ConwayCell> 26x17 ***

Generation = 0, Population = 15.
*.............*..
............*...*
.................
.................
......*..........
.................
*................
.................
.................
...*.............
.................
*.....*.....*....
.................
................*
.................
.................
..............*..
.................
.................
.................
.......*.........
..........*......
.................
.................
.................
.........*.......

Generation = 8, Population = 0.
.................
.................
.................
.................
.................
.................
.................
.................
.................
.................
.................
.................
.................
.................
.................
.................
.................
.................
.................
.................
.................
.................
.................
.................
.................
.................

*** Life<ConwayCell> 10x17 ***

Generation = 0, Population = 16.
.........*......*
....*............
...*.............
.................
...*.............
*......**........
..*.........*....
............*....
........*.*.....*
........*...*....

Generation = 8, Population = 0.
.................
.................
.................
.................
.................
.................
.................
.................
.................
.................

*** Life<ConwayCell> 11x17 ***

Generation = 0, Population = 7.
.................
.................
.................
.............*...
............*....
.*...............
.................
..*..............
........*........
*................
...............*.

*** Life<ConwayCell> 30x24 ***

Generation = 0, Population = 9.
...............*........
..............*.........
.......*................
........................
..................*.....
...........*............
........................
........................
..*.....................
........................
........................
........................
........................
........................
........................
........................
........................
........................
........................
........................
........................
........................
......*.................
..........*.............
.............*..........
........................
........................
........................
........................
........................

Generation = 8, Population = 0.
........................
........................
........................
........................
........................
........................
........................
........................
........................
........................
........................
........................
........................
........................
........................
........................
........................
........................
........................
........................
........................
........................
........................
........................
........................
........................
........................
........................
........................
........................

*** Life<ConwayCell> 7x7 ***

Generation = 0, Population = 19.
*....*.
.**..*.
*.**...
.*.....
*.***..
*.**.*.
..*..*.

Generation = 2, Population = 21.
.***...
*.***..
*.*....
**.**..
....**.
.**..*.
..***..

Generation = 4, Population = 18.
.......
**.....
*.*..*.
*.****.
*....**
*....*.
.*.**..

*** Life<ConwayCell> 17x16 ***

Generation = 0, Population = 6.
................
................
................
................
..*........*....
................
................
....*...........
................
................
............*...
................
...*............
.......*........
................
................
................

Generation = 3, Population = 0.
................
................
................
................
................
................
................
................
................
................
................
................
................
................
................
................
................

*** Life<ConwayCell> 29x31 ***

Generation = 0, Population = 2.
...............................
...............................
............................*..
...............................
...............................
...............................
...............................
...............................
...............................
...............................
...............................
...............................
...............................
...............................
...............................
...............................
...............................
...............................
...............................
...............................
...............................
...............................
...............................
...............................
...............................
...............................
.......................*.......
...............................
...............................

Generation = 16, Population = 0.
...............................
...............................
...............................
...............................
...............................
...............................
...............................
...............................
...............................
...............................
...............................
...............................
...............................
...............................
...............................
...............................
...............................
...............................
...............................
...............................
...............................
...............................
...............................
...............................
...............................
...............................
...............................
...............................
...............................

*** Life<ConwayCell> 18x24 ***

Generation = 0, Population = 14.
........................
........................
........................
........................
........................
.*......*...............
..........*.........*.*.
...*....................
........................
........................
...................*....
.*................*....*
......*.................
........................
........*..............*
.....*..................
........................
........................

*** Life<ConwayCell> 1x43 ***

Generation = 0, Population = 13.
***.**....*..**....*....*.....*........*..*

*** Life<ConwayCell> 9x41 ***

Generation = 0, Population = 26.
..........................*..............
...*...................*....*............
............*...*............*...........
.........................................
...............*...*.*.*.....*...........
..............*...........*..............
.............**.........*................
.*.......*....*..............*...*...*...
....*..............*........*............

Generation = 3, Population = 5.
.........................................
.........................................
.........................................
.........................................
..............*..........................
.............**..........................
............**...........................
.........................................
.........................................

Generation = 6, Population = 7.
.........................................
.........................................
.........................................
.........................................
.............**..........................
............*..*.........................
............*.*..........................
.............*...........................
.........................................

*** Life<ConwayCell> 33x16 ***

Generation = 0, Population = 20.
.....*..........
......*.........
................
................
................
..........*.....
.........*.....*
..........*....*
................
................
................
...........*.*..
................
....*...........
.............*..
................
............*...
................
.........*....*.
................
.........*......
................
..*.............
................
................
......*.........
................
................
................
..........*.....
..............*.
.*..............
................

Generation = 2, Population = 0.
................
................
................
................
................
................
................
................
................
................
................
................
................
................
................
................
................
................
................
................
................
................
................
................
................
................
................
................
................
................
................
................
................

Generation = 4, Population = 0.
................
................
................
................
................
................
................
................
................
................
................
................
................
................
................
................
................
................
................
................
................
................
................
................
................
................
................
................
................
................
................
................
................

Generation = 6, Population = 0.
................
................
................
................
................
................
................
................
................
................
................
................
................
................
................
................
................
................
................
................
................
................
................
................
................
................
................
................
................
................
................
................
................

Generation = 8, Population = 0.
................
................
................
................
................
................
................
................
................
................
................
................
................
................
................
................
................
................
................
................
................
................
................
................
................
................
................
................
................
................
................
................
................

Generation = 10, Population = 0.
................
................
................
................
................
................
................
................
................
................
................
................
................
................
................
................
................
................
................
................
................
................
................
................
................
................
................
................
................
................
................
................
................

*** Life<ConwayCell> 33x14 ***

Generation = 0, Population = 3.
..............
..............
..............
..............
..............
..............
......*.......
..............
..............
..............
.....*........
..............
..............
..............
..............
..............
..............
..............
..*...........
..............
..............
..............
..............
..............
..............
..............
..............
..............
..............
..............
..............
..............
..............

*** Life<ConwayCell> 38x31 ***

Generation = 0, Population = 21.
..............*.*......*...*...
..............*................
...............................
...............................
...............................
...............................
...............................
...............................
...............................
.........................*.....
...............................
...............................
....*..........................
..................*......*.....
...............................
...............................
...............................
......*........................
.............................*.
.............................**
...............................
...........................*...
..........................*....
...............................
......................*........
.*......................*......
...............................
...............................
........................*......
...............................
..............*................
...............................
...............................
...............................
....*..........................
...............................
...............................
...............................

*** Life<ConwayCell> 36x27 ***

Generation = 0, Population = 25.
...........................
...........................
...........................
...........................
..*..*.....................
..*.....................*..
...........................
.......................*...
...........................
..**.......................
...........................
...........................
...........................
..................*........
..............*........*...
.....*.....................
...........................
.................*.........
.......................*...
............*..............
.*.........................
..*...*....................
...........*...............
*..........................
...........................
........*..................
...........................
...........................
...........................
.*.........................
...........................
....................*......
...*.......................
...........................
...................*.......
......................*....

Generation = 12, Population = 0.
...........................
...........................
...........................
...........................
...........................
...........................
...........................
...........................
...........................
...........................
...........................
...........................
...........................
...........................
...........................
...........................
...........................
...........................
...........................
...........................
...........................
...........................
...........................
...........................
...........................
...........................
...........................
...........................
...........................
...........................
...........................
...........................
...........................
...........................
...........................
...........................

*** Life<ConwayCell> 22x43 ***

Generation = 0, Population = 26.
................*....*.....................
...................................*.......
........*..................................
...........................................
..........*.....*..........................
...............*..............*............
...........................................
...*.......................................
...........................................
.............*.............................
.......*...................................
.............*........*...............*....
...........................................
...........................................
...........................................
*..........................................
................*..........................
................................*..........
................*...*......................
..........*................................
........*.........*...........*.........**.
*..........................................

Generation = 3, Population = 0.
...........................................
...........................................
...........................................
...........................................
...........................................
...........................................
...........................................
...........................................
...........................................
...........................................
...........................................
...........................................
...........................................
...........................................
...........................................
...........................................
...........................................
...........................................
...........................................
...........................................
...........................................
...........................................

Generation = 6, Population = 0.
...........................................
...........................................
...........................................
...........................................
...........................................
...........................................
...........................................
...........................................
...........................................
...........................................
...........................................
...........................................
...........................................
...........................................
...........................................
...........................................
...........................................
...........................................
...........................................
...........................................
...........................................
...........................................

Generation = 9, Population = 0.
...........................................
...........................................
...........................................
...........................................
...........................................
...........................................
...........................................
...........................................
...........................................
...........................................
...........................................
...........................................
...........................................
...........................................
...........................................
...........................................
...........................................
...........................................
...........................................
...........................................
...........................................
...........................................

*** Life<ConwayCell> 8x24 ***

Generation = 0, Population = 12.
..............*.........
........................
.............*..........
..*.................*...
..*...*.................
.........*.........*....
........................
.........**........**...

Generation = 4, Population = 0.
........................
........................
........................
........................
........................
........................
........................
........................

*** Life<ConwayCell> 25x50 ***

Generation = 0, Population = 21.
..............*...........*.......................
..................................................
...........*..........*...........................
..................................................
..................................................
..................................................
.........................*........................
.....*............................*.*.............
..................................................
..................................................
.*..*.............................................
..................................................
..................................................
..................................................
..........................*.................*.....
..................................................
..............................*...................
..................................................
....................*.............................
.......................*..........................
.................................*................
...................................*..............
*............*.*..................................
....................*.............................
..................................................

*** Life<ConwayCell> 11x4 ***

Generation = 0, Population = 12.
.*..
....
...*
..*.
*...
.*..
*.**
.*..
..*.
....
.**.

Generation = 14, Population = 10.
....
....
....
..**
..**
..**
....
....
.**.
.**.
....

*** Life<ConwayCell> 2x14 ***

Generation = 0, Population = 10.
...*.*..***.**
*..*.....*....

*** Life<ConwayCell> 18x33 ***

Generation = 0, Population = 13.
.........*.......................
.................................
.................................
.................................
.........................*.......
.......*.........................
.................................
......................*..........
..*..................*...........
.................................
..............*........*.....*...
.................................
.....................*.......*...
.*...............................
................*................
.................................
.................................
.................................

*** Life<ConwayCell> 4x33 ***

Generation = 0, Population = 13.
..*.....*...*..*....*........*...
........*........................
....*......*................*....
.....*...*...........*...........

Generation = 16, Population = 0.
.................................
.................................
.................................
.................................

*** Life<ConwayCell> 34x27 ***

Generation = 0, Population = 24.
...........................
...........................
............*..............
.......................*...
...........................
...........................
......................*....
..........*................
...........................
.......*....*..............
...........................
...........................
...........................
...........................
..*.....................*..
.*.........................
.......................*...
.......................*.*.
*.....*....................
...........................
.....................*.....
....*..............*.......
...........................
.............*.............
...........................
..*.....*..................
...............*...........
..........................*
...........................
...........................
...........................
...................*.......
..........*................
...........................

*** Life<ConwayCell> 46x2 ***

Generation = 0, Population = 23.
..
..
..
..
..
..
..
*.
.*
..
.*
..
*.
..
.*
..
*.
..
**
**
.*
.*
..
.*
..
..
..
.*
..
..
.*
..
*.
.*
*.
*.
..
..
..
*.
..
..
..
*.
*.
.*

Generation = 9, Population = 4.
..
..
..
..
..
..
..
..
..
..
..
..
..
..
..
..
..
..
..
..
..
..
..
..
..
..
..
..
..
..
..
..
..
**
**
..
..
..
..
..
..
..
..
..
..
..

*** Life<ConwayCell> 27x29 ***

Generation = 0, Population = 20.
.............................
.............................
.............................
..........................*..
.............*...............
......................*......
......*......................
..................*..........
..............*..............
.............................
.............................
..................*..........
.............................
.....*.*...*...............*.
.............................
.....................*.......
.............................
.........................*...
............................*
.............................
.....................*....*..
.............................
.....*......................*
.............................
.............................
.............................
...........................**

Generation = 1, Population = 0.
.............................
.............................
.............................
.............................
.............................
.............................
.............................
.............................
.............................
.............................
.............................
.............................
.............................
.............................
.............................
.............................
.............................
.............................
.............................
.............................
.............................
.............................
.............................
.............................
.............................
.............................
.............................

*** Life<ConwayCell> 20x16 ***

Generation = 0, Population = 6.
................
........*..*....
................
..............*.
...............*
................
................
................
.........*......
................
................
..........*.....
................
................
................
................
................
................
................
................

*** Life<ConwayCell> 41x30 ***

Generation = 0, Population = 16.
..............................
..............................
................*.............
..............................
..............................
..............................
*....*........................
*.............................
..............................
..............................
..............................
..............................
..............................
..............................
.*............................
..............................
..*...........................
......*.......................
..............................
..............................
..............................
..............................
..............................
..............................
..............................
..............................
........*.......*.............
..............................
..............................
...........................*..
..............................
..............................
*.............................
.............................*
...............*..............
..............................
..............................
..............*...........*...
..............................
..............................
........................*.....

Generation = 5, Population = 0.
..............................
..............................
..............................
..............................
..............................
..............................
..............................
..............................
..............................
..............................
..............................
..............................
..............................
..............................
..............................
..............................
..............................
..............................
..............................
..............................
..............................
..............................
..............................
..............................
..............................
..............................
..............................
..............................
..............................
..............................
..............................
..............................
..............................
..............................
..............................
..............................
..............................
..............................
..............................
..............................
..............................

Generation = 10, Population = 0.
..............................
..............................
..............................
..............................
..............................
..............................
..............................
..............................
..............................
..............................
..............................
..............................
..............................
..............................
..............................
..............................
..............................
..............................
..............................
..............................
..............................
..............................
..............................
..............................
..............................
..............................
..............................
..............................
..............................
..............................
..............................
..............................
..............................
..............................
..............................
..............................
..............................
..............................
..............................
..............................
..............................

Generation = 15, Population = 0.
..............................
..............................
..............................
..............................
..............................
..............................
..............................
..............................
..............................
..............................
..............................
..............................
..............................
..............................
..............................
..............................
..............................
..............................
..............................
..............................
..............................
..............................
..............................
..............................
..............................
..............................
..............................
..............................
..............................
..............................
..............................
..............................
..............................
..............................
..............................
..............................
..............................
..............................
..............................
..............................
..............................

Generation = 20, Population = 0.
..............................
..............................
..............................
..............................
..............................
..............................
..............................
..............................
..............................
..............................
..............................
..............................
..............................
..............................
..............................
..............................
..............................
..............................
..............................
..............................
..............................
..............................
..............................
..............................
..............................
..............................
..............................
..............................
..............................
..............................
..............................
..............................
..............................
..............................
..............................
..............................
..............................
..............................
..............................
..............................
..............................

*** Life<ConwayCell> 12x11 ***

Generation = 0, Population = 21.
**..*.*..*.
......*....
..*........
*.*.......*
....*......
...*.....*.
........**.
..*...*....
*..........
...........
........*..
...*.....*.

*** Life<ConwayCell> 47x19 ***

Generation = 0, Population = 20.
..*.............*..
...................
...................
..........*........
....*..............
*..................
...................
...................
...................
...................
...................
...................
...................
...................
...................
...................
........*..........
.....*..*..........
...................
...................
...................
...................
.....*.............
....*.*............
...................
..................*
......*............
..................*
...................
........*.....*....
...................
...................
...............*...
...................
...................
......*............
................*..
...................
...................
...................
...................
...................
...................
...................
...................
...................
.......*...........

Generation = 3, Population = 0.
...................
...................
...................
...................
...................
...................
...................
...................
...................
...................
...................
...................
...................
...................
...................
...................
...................
...................
...................
...................
...................
...................
...................
...................
...................
...................
...................
...................
...................
...................
...................
...................
...................
...................
...................
...................
...................
...................
...................
...................
...................
...................
...................
...................
...................
...................
...................

Generation = 6, Population = 0.
...................
...................
...................
...................
...................
...................
...................
...................
...................
...................
...................
...................
...................
...................
...................
...................
...................
...................
...................
...................
...................
...................
...................
...................
...................
...................
...................
...................
...................
...................
...................
...................
...................
...................
...................
...................
...................
...................
...................
...................
...................
...................
...................
...................
...................
...................
...................

Generation = 9, Population = 0.
...................
...................
...................
...................
...................
...................
...................
...................
...................
...................
...................
...................
...................
...................
...................
...................
...................
...................
...................
...................
...................
...................
...................
...................
...................
...................
...................
...................
...................
...................
...................
...................
...................
...................
...................
...................
...................
...................
...................
...................
...................
...................
...................
...................
...................
...................
...................

