*** Life<FredkinCell> 16x9 ***

Generation = 0, Population = 17.
------0--
---------
-------0-
0-0----0-
-0------0
---------
----0-0--
0--------
---------
--0------
---0---00
---------
-----0---
----0----
---------
----0----

*** Life<FredkinCell> 2x13 ***

Generation = 0, Population = 11.
0-0000--000-0
-0-------0---

*** Life<FredkinCell> 15x8 ***

Generation = 0, Population = 2.
--------
--------
--------
--------
--------
--------
0-------
--------
--------
--------
0-------
--------
--------
--------
--------

*** Life<FredkinCell> 12x20 ***

Generation = 0, Population = 28.
---0----------------
0--0--0-------------
0-----0-------------
----0---------0-----
0-0-0--------------0
----0----0---0---0--
-------0-----------0
-----------0--------
0------------0------
---0----0-----------
------0--0---0---0--
------------------0-

Generation = 7, Population = 112.
----0-3--2--0---0-01
2-------2-1----0--2-
21-----4----12----0-
-0--2-2-31123--0--1-
-1-03-124---0---0600
-0212---0--0----0-00
-21-----2-0-0---0-02
0--10-0101---0--01--
---10-1--3----00-5--
--01-3--132--0212011
-00-0-040011110102-1
0--1---13-1--0--0200

Generation = 14, Population = 116.
-2274-32--2--3-21304
-4-43--34---250---2-
----3-24--1-1-10----
-364----51-45--23--5
-2-2-4--73-----22---
----546-3--22-2--224
1524--74-644--030--3
-2-2-3--3-2--3-421-2
--33--4-43-3-020-614
02--1-33--21-----2-4
-23--3-61---2--5----
01------626113---7--

Generation = 21, Population = 122.
--3-5--2462-355-13-8
---54326------2-62-3
-13--4475-211-314---
-3-48--0733-5-2333-6
8---79-2-5-27-------
1--8+-64----4---25-6
---7-4-737---61----4
-3--3--54-5-17--4--4
3--33---65182----7-9
--03--3-2--2-535--38
-5554447--3-4----62-
71--144--38-253-4--2

Generation = 28, Population = 120.
-44+---296-5-7763--+
9--8----8----+6-746+
-1----6+54--36---9--
8-98--74-75-762+-58-
--75-+--9-2-+5---+34
4--++8-5-6-7-468-78-
--5-2-+++---3-3718--
---6+676-4----8--6--
6-9-----965--0---+4-
-748-6-9--5---3868--
--8-9--+5--+7---3-4-
+--4-9--9-933741-+0-

Generation = 35, Population = 122.
-7-+--8-+86-598-542-
96--66----5-------7+
61-7----+-4-49-7----
-7-+-------8+-5-8-88
+---9-6-+--4-+-6--3-
4-++-9+6+848-4-85--+
6--+36++-+----6+-+35
3-4++6-8-586-9969--7
-3+556---8+-6-6---7+
-9---9---7+--98-9+5-
--+--88-886--2--8+63
+3----6----8---25+2-

*** Life<FredkinCell> 3x16 ***

Generation = 0, Population = 10.
-00------------0
0----0----------
-0--0-0----0---0

Generation = 41, Population = 27.
-74-+9+-+8---4-6
-88+-5+-8---6--8
9+-+-8--++9++-8-

*** Life<FredkinCell> 16x8 ***

Generation = 0, Population = 5.
-0------
--------
--------
-0------
--------
--------
--------
--0-----
-0------
--------
--------
0-------
--------
--------
--------
--------

Generation = 29, Population = 62.
060-0-0-
1-2--4--
-+---608
---226--
-6-----5
4-1-5-40
-90206-2
--5-5-0-
0--4040-
----1---
---5-302
-23597-3
------01
--645325
--0---03
--3243--

Generation = 58, Population = 49.
-+---+-+
8+---+--
-------+
+++-----
-+-4-+-+
-----9-6
---9-+-9
77+--9-8
-+-+---+
-+49-858
--------
-+79---+
-9------
--+97-88
-8---9--
8----945

*** Life<FredkinCell> 16x12 ***

Generation = 0, Population = 27.
-0----------
-000--------
-0----------
0------00-0-
--------0---
-----0-----0
----0-----0-
--------0---
----0---0---
------0-----
0-----------
-----0---0--
-----0------
0-----------
-----0------
-0---0-----0

*** Life<FredkinCell> 16x8 ***

Generation = 0, Population = 17.
-0--0---
-0------
--------
00---0--
-----000
-0------
--------
--0---0-
--------
--------
--------
--0----0
--------
------00
---0----
--------

*** Life<FredkinCell> 8x15 ***

Generation = 0, Population = 15.
---0----0-0-0--
-----0--------0
-------------0-
-------0-------
--00-----------
---------------
---0-0----0----
---0---0-------

*** Life<FredkinCell> 20x11 ***

Generation = 0, Population = 5.
-----0-----
-----------
-----------
-----------
------0----
-----------
-----------
-----------
-----------
--------0--
-----------
-----------
-----------
-----------
-----------
-----------
0----------
-----------
0----------
-----------

Generation = 27, Population = 118.
-544-3--37-
--302-70--2
---204610--
2-0--000601
------41--6
--3-408-5--
-6-----336-
----3040602
-5-1---043-
--3-40--6--
2--1-9----4
-00-2-8-802
4312-73----
70-010-030-
--4-2-6386-
10-05--0-03
274146-05--
1020-0----3
-30-5543-3-
1--0--40--1

Generation = 54, Population = 81.
+---------+
+-5---+-+--
+-+--+-----
--0---5---3
2966+8-3+99
+-7-------+
+-7-7+--6--
----7-7-+--
+-+-----+--
----+-+-+--
33----+--7+
9-1-------6
86-3+-+2861
+-8-----9-8
---2+9+4--5
5---+-+---+
--8--+-----
5-2-4---+--
9-------+-+
9-----+----

Generation = 81, Population = 80.
+-+-----+-+
-0---0+-+0-
----+++-++-
+----0-0+0-
8+---++5---
+0------+0-
+---++--++-
-----07----
-------2-+-
------+----
7----++--+-
-0---0+0+--
+-----+-+--
-0-----0+--
--7---++++8
-0---0+-+0-
--+--++1--7
--------+--
+-+--+--+++
-0----+-+0-

*** Life<FredkinCell> 13x4 ***

Generation = 0, Population = 3.
----
----
--0-
----
-0--
----
----
----
----
--0-
----
----
----

Generation = 4, Population = 11.
-10-
----
2-1-
----
-1-2
--1-
--0-
----
-0--
0-0-
----
----
----

Generation = 8, Population = 9.
----
--0-
22--
----
--22
----
----
----
----
0-2-
--1-
----
-0--

Generation = 12, Population = 25.
0521
1---
-421
----
123-
0---
111-
----
-112
1---
133-
----
-232

Generation = 16, Population = 12.
----
--2-
5-3-
----
-2-5
--2-
-1--
----
--1-
5-7-
-4--
----
--3-

Generation = 20, Population = 23.
2533
6-3-
59--
----
--76
--2-
3-63
----
35-3
6-9-
--62
----
05--

Generation = 24, Population = 18.
-55-
----
--77
----
42--
2-3-
--75
----
39--
8-+-
2--3
----
1--4

Generation = 28, Population = 16.
----
7-7-
5-++
----
63-9
--7-
-5--
----
--3-
--+-
66--
----
--66

Generation = 32, Population = 8.
-87-
----
9---
----
---9
--8-
--9-
----
-+--
+---
----
----
----

Generation = 36, Population = 12.
-+9-
--+-
-++-
----
-4+-
--+-
--+-
----
-+--
----
--7-
----
-8--

Generation = 40, Population = 24.
8++9
8-+-
+-++
----
88-+
5---
97+-
----
-+64
--+-
98--
----
--+9

Generation = 44, Population = 23.
8+++
8-+-
++-+
----
+-++
5-+-
9-+-
----
-+-6
--+-
+-9-
----
-+-+

Generation = 48, Population = 23.
9+++
9---
-++-
----
-9+-
----
+9+9
----
6+96
----
-++5
----
2++-

Generation = 52, Population = 19.
9--+
+-+-
++++
----
++++
6---
+---
----
---8
----
+-+-
----
-+-+

Generation = 56, Population = 18.
-++-
+-+-
+---
----
---+
6---
-+++
----
9++-
+---
-+-8
----
5-+-

*** Life<FredkinCell> 15x2 ***

Generation = 0, Population = 5.
0-
-0
--
--
--
--
--
--
--
00
--
--
0-
--
--

*** Life<FredkinCell> 19x15 ***

Generation = 0, Population = 2.
---------------
---------------
---------------
---------------
---------------
---------------
0-----------0--
---------------
---------------
---------------
---------------
---------------
---------------
---------------
---------------
---------------
---------------
---------------
---------------

*** Life<FredkinCell> 15x8 ***

Generation = 0, Population = 15.
--------
----0---
-00-----
-------0
---00---
--------
00------
--------
--0-----
-----0--
-------0
0--0----
--------
-0---0--
--------

Generation = 10, Population = 60.
44--110-
-05-3-3-
421----0
3--1---1
-122-13-
2222--1-
-2--0-1-
-1-1----
----32-4
0002----
2--22-32
3171---2
1-3---01
13-3-11-
23-----3

Generation = 20, Population = 55.
8524410-
3-----6-
---51--3
-3-6-8-7
--+-48-5
--55--45
--12-12-
533----5
42--562-
---4-9--
574--7-3
7-+-5588
2---2---
-----5--
-----3-5

Generation = 30, Population = 55.
-67--12-
-4--57+5
666--965
+-+-6+3-
6----+--
-7--5---
23-8-629
6--567--
--------
3--76+4+
-+-6-+-5
-----+++
-5-4-4--
7-4-6-4-
---6----

*** Life<FredkinCell> 20x11 ***

Generation = 0, Population = 19.
----0----0-
---0-------
-----------
----------0
-0----00---
-----------
------0----
-----0-----
---------0-
-------0---
----0-0----
-----------
----------0
-------0---
---0-------
-----------
00---------
------0----
-----------
-----------

*** Life<FredkinCell> 9x5 ***

Generation = 0, Population = 9.
-00-0
0----
-----
--0--
-----
0----
-----
--0--
0---0

Generation = 18, Population = 19.
2-44-
----5
--+04
7----
51-31
--7--
745--
--4--
4---6

Generation = 36, Population = 9.
-+9-9
6----
-----
--3--
-----
+----
-----
--+--
6---9

*** Life<FredkinCell> 7x5 ***

Generation = 0, Population = 13.
---00
00---
--00-
--00-
00---
-----
--000

Generation = 52, Population = 14.
-7---
-----
---6-
+--++
2++--
-+2-+
+0--+

*** Life<FredkinCell> 2x11 ***

Generation = 0, Population = 19.
000000-0000
-000000-000

Generation = 22, Population = 12.
91---04-51-
53---26-84-

*** Life<FredkinCell> 1x12 ***

Generation = 0, Population = 3.
-00-0-------

*** Life<FredkinCell> 15x6 ***

Generation = 0, Population = 9.
------
--0---
0-----
--0---
------
------
0-----
------
0-----
---0--
------
------
----0-
--0---
---0--

Generation = 5, Population = 45.
300---
--300-
--1--0
-01-0-
2000--
-0-2--
---0-0
00-00-
-0-0-0
001-0-
-0--00
0---0-
0---10
--2-20
0-0-43

Generation = 10, Population = 46.
----2-
216--1
0-2-2-
---20-
3--1--
----0-
1043-1
-0-1--
0113-1
-122-0
--113-
112---
1132--
10--53
1-3--3

Generation = 15, Population = 49.
-02-2-
237--1
-2-44-
42-43-
----40
04---1
215--2
30-261
--35--
-----2
-63484
22----
4--530
2--3-4
-144-4

Generation = 20, Population = 36.
7-2---
--7-3-
----4-
6-3---
6-2---
35--22
----6-
4---7-
2---3-
1--433
563--4
------
-36--0
-28-75
--75-5

Generation = 25, Population = 52.
703-20
6---63
4--451
9364--
-15---
365--5
43837-
------
2-7-36
-22--4
6--485
523021
--7---
84-3--
-57-67

Generation = 30, Population = 45.
-16-30
-4-3-5
65----
+5----
8473-4
-76--6
4-+-8-
-1--92
26-8-6
-5----
-95---
-2-34-
-6--82
--+4-9
65--78

Generation = 35, Population = 38.
-18--0
74-3--
-----2
+6946-
8-8---
57----
54---2
----9-
-7-8--
------
8-----
-27-42
-7+-84
----+9
96-8+8

Generation = 40, Population = 24.
------
----+6
9---7-
+---9-
+-+---
------
6---+2
------
5---99
-9----
9-8---
7-----
+-+-9-
----++
-9----

Generation = 45, Population = 39.
+--1--
+5---+
--848-
---4+-
+-+4-6
-9----
9--6+-
--44-3
89--++
--5-7-
+--7+-
74--83
---8--
+4----
--+-+-

Generation = 50, Population = 33.
+-+-9-
+---+-
----9-
+---+-
------
8-8---
+-+---
---4-4
+-+---
-+-+--
--9-+-
8-95-5
+-+8-7
--+-+-
+9---8

*** Life<FredkinCell> 19x14 ***

Generation = 0, Population = 29.
-0---0--------
--------------
-0------------
0-0-----------
---0----0-----
----0---------
-------------0
-0------------
-0------0-0---
---0----------
------------0-
-0---0-0------
---------0----
--------------
---0---------0
----0---00----
--------0-0-00
-----------0--
--------------

Generation = 16, Population = 81.
---0---3+52654
-----------0--
---------5-0-1
-4---4-2--3---
----3-1--1-55-
---2----6-21--
------------32
-3--5---31-3-0
--56--5----3-2
----6----4-5--
4-17----63----
334----3-6-3-0
-6-3-1------4-
---3----------
-7---3--4533--
-2-1423-4-2---
0----46------6
-2-15---------
-1-1----4-----

Generation = 32, Population = 75.
-6-----7+-6--+
---87---------
--------+---5-
66--97-3------
-----+7--56---
--8---8-------
-5-6-3-----8--
---1+---+4----
-9-+-69------6
-6---7-----+--
-9--------4---
8-+--6-4-9----
---5---+8--7--
----8------+--
-+---6--6-6895
-59-7--98458--
-5-4--+---7++-
---5-----5---4
---------6--5-

Generation = 48, Population = 149.
-+5+---++--+--
---++---7-+--7
+-8+9-76++-36-
+-+----++-6675
-6+7++++9-+-+-
-7-8-6+-796+86
-+-+-7-9--+++-
-+6-+98+++----
-+-+--+3--+-+-
-++++-3+-+---9
--6+65+++6+--6
-++97-----+---
---+97+++++++-
----95--+-++--
7----9--++79-+
-8+++-9+-+-++8
+8--+++5-6++--
-49-++6--9-+--
9-89--8-++8-8-

Generation = 64, Population = 82.
---+-6--+++-+-
-----------5--
-+---+---+----
+++-++6+------
----+--+------
9--+----+--+--
-+-------+-+++
----++--++----
-+-++++-----+-
----+--+------
---+-----+--+-
++++---+-+-+--
-+---+------++
---+----------
-----+-+++++--
++--++--+---++
-+--+++-++-+-+
----+--+-----+
-+-+----+-----

Generation = 80, Population = 131.
++-+++----++-+
-+--+--+-----+
-------+++-++-
++++-+9+-----+
-+---+-+-++-+-
-7-++-+--+-+++
+-++-+--++--+-
++-++++++-+-++
+++--++-+---+-
+----+-+--8+--
+++++--+-+-+++
-+-+++++--++-+
+-++-+-+-+-+++
----+--+-+----
--+-+---+-+---
+++--+++--++++
-+-++--+++----
++-+-+-+--+---
-+---+++-----+

*** Life<FredkinCell> 15x9 ***

Generation = 0, Population = 6.
---------
------0--
------0--
---------
---------
---------
---------
------0--
---------
---------
---------
---------
---------
00-------
-------0-

*** Life<FredkinCell> 14x17 ***

Generation = 0, Population = 27.
-------0--------0
-----00--0--0---0
------0--0------0
0----0-----0--0-0
-----------------
-0---------0-----
-----------0-----
-0---------------
-----0-----------
-----------------
0-0--------0--0--
-----------0---0-
-----------------
--------0--------

Generation = 42, Population = 120.
-7-9--+----8+-+7-
--7+-++-++++8-+--
+46--+69+8-+----+
8-9----++---9-+8-
25-6+-+-7-+-67--+
+97+-59---6-8-8-+
7788-+6+3--8-----
-66+7--7--88-857-
-6-7--+---8+-++77
++--8-5--7---+-+9
---9---9---+++-7-
5---9-++-6+--69+-
---4-8-9-+-+----4
--+9+8---+-++1--5

*** Life<FredkinCell> 2x7 ***

Generation = 0, Population = 10.
0-0000-
-000-00

Generation = 3, Population = 6.
-----0-
11-10-1

Generation = 6, Population = 5.
--0--1-
---21-2

Generation = 9, Population = 6.
-1-3---
-33-2-3

Generation = 12, Population = 8.
02-3---
44-632-

Generation = 15, Population = 4.
-2-----
---743-

Generation = 18, Population = 7.
030---0
4-68---

Generation = 21, Population = 4.
---6-2-
-----55

Generation = 24, Population = 10.
0-0603-
-66+-66

Generation = 27, Population = 6.
-----3-
77-+6-7

Generation = 30, Population = 5.
--0--4-
---+7-8

Generation = 33, Population = 6.
-4-9---
-99-8-9

Generation = 36, Population = 8.
05-9---
++-+98-

Generation = 39, Population = 4.
-5-----
---++9-

Generation = 42, Population = 7.
060---0
+-++---

Generation = 45, Population = 4.
---+-5-
-----++

Generation = 48, Population = 10.
0-0+06-
-+++-++

Generation = 51, Population = 6.
-----6-
++-++-+

Generation = 54, Population = 5.
--0--7-
---++-+

Generation = 57, Population = 6.
-7-+---
-++-+-+

Generation = 60, Population = 8.
08-+---
++-+++-

Generation = 63, Population = 4.
-8-----
---+++-

Generation = 66, Population = 7.
090---0
+-++---

Generation = 69, Population = 4.
---+-8-
-----++

Generation = 72, Population = 10.
0-0+09-
-+++-++

Generation = 75, Population = 6.
-----9-
++-++-+

Generation = 78, Population = 5.
--0--+-
---++-+

Generation = 81, Population = 6.
-+-+---
-++-+-+

Generation = 84, Population = 8.
0+-+---
++-+++-

Generation = 87, Population = 4.
-+-----
---+++-

Generation = 90, Population = 7.
0+0---0
+-++---

Generation = 93, Population = 4.
---+-+-
-----++

Generation = 96, Population = 10.
0-0+0+-
-+++-++

*** Life<FredkinCell> 12x6 ***

Generation = 0, Population = 13.
------
00----
0-----
------
---0--
---0--
000--0
---0--
0-----
------
---0--
-----0

Generation = 48, Population = 27.
-9---8
-5+7+-
---+-+
++7---
+8-+--
96----
+9--8-
----++
-----+
------
---+--
++6-5-

