30

20 6
17
16 1
18 1
15 2
16 3
16 2
11 4
3 0
0 2
10 4
15 4
16 1
17 4
2 1
9 4
14 5
5 1
14 2
13 167

2 10
16
0 6
0 4
1 2
1 3
1 5
1 1
0 1
0 5
0 1
0 8
0 8
0 6
1 4
1 8
0 5
1 0
4 34

10 12
17
0 2
3 10
5 11
8 10
1 1
5 7
2 5
8 4
5 7
3 5
9 1
1 3
2 9
3 2
7 8
7 10
2 4
18 93

17 10
4
3 7
7 9
6 2
12 5
4 110

6 12
14
2 9
2 6
0 9
3 2
1 9
1 9
5 8
0 1
3 8
1 0
0 8
3 0
2 9
3 8
7 64

1 6
1
0 4
14 174

15 4
20
14 0
14 3
0 1
0 3
8 3
13 3
12 0
14 3
2 1
7 1
12 0
5 3
2 3
12 1
0 3
5 3
2 0
8 1
1 0
12 3
14 89

19 14
11
4 13
4 1
2 0
18 13
7 2
9 13
0 10
8 8
7 4
11 13
17 11
4 56

20 6
17
14 4
3 0
13 4
7 3
8 5
9 3
12 1
9 4
5 3
14 3
8 4
6 3
4 0
8 2
14 1
2 4
14 5
3 69

9 15
7
7 2
1 12
0 7
0 5
6 8
6 7
4 7
18 31

12 16
14
6 13
3 5
5 15
7 10
2 10
5 9
1 2
11 8
3 5
5 4
5 7
3 15
3 11
8 10
18 128

13 1
7
4 0
4 0
7 0
6 0
5 0
1 0
12 0
2 158

9 14
14
3 0
1 8
0 10
0 0
8 13
0 3
0 8
1 5
0 9
8 10
7 13
1 8
1 13
2 11
10 197

20 10
19
7 3
10 7
8 5
19 2
9 0
6 2
12 0
6 1
9 0
6 7
19 2
15 5
13 0
5 5
2 8
9 8
14 8
7 4
8 6
6 159

18 1
7
1 0
17 0
15 0
4 0
17 0
8 0
15 0
13 2

18 5
15
14 3
2 2
16 4
2 4
10 1
14 2
2 4
17 3
5 2
5 4
5 3
15 2
16 1
1 2
17 1
17 183

12 8
1
8 0
10 199

16 19
6
1 0
7 4
14 8
12 9
9 17
9 18
9 137

12 8
12
1 3
5 0
2 3
3 1
8 2
0 2
5 6
1 6
10 7
10 0
0 2
0 3
11 30

16 9
15
6 1
12 2
1 8
14 4
7 5
5 3
8 4
3 8
0 3
15 0
1 6
14 6
2 7
13 8
5 1
19 49

6 14
17
5 4
3 9
1 4
3 5
4 5
5 0
1 12
5 3
5 3
3 2
1 3
3 12
4 1
0 8
2 6
0 6
3 6
9 159

9 19
12
7 4
1 1
5 1
1 2
7 6
4 6
8 13
4 15
2 8
0 2
8 17
8 6
4 167

19 12
12
5 2
14 7
8 8
15 4
11 2
4 9
17 6
6 11
18 4
14 4
1 3
11 11
7 140

4 8
4
3 3
2 5
1 1
2 2
11 93

15 9
7
12 0
14 2
1 2
12 6
14 1
11 6
14 3
2 45

11 13
12
7 9
1 4
3 9
4 0
10 5
1 11
10 0
6 12
9 11
6 6
3 5
7 5
3 25

12 4
12
11 3
0 1
2 1
1 2
7 2
3 3
1 2
8 0
3 3
8 0
11 0
0 1
16 107

6 3
9
3 0
4 2
3 0
4 0
5 0
5 2
5 2
2 2
4 2
12 182

3 18
17
0 10
0 7
0 16
0 17
1 16
1 12
1 15
1 2
0 17
2 6
1 15
1 6
0 14
2 15
2 10
0 8
0 16
15 32

18 8
6
6 7
17 4
12 7
8 0
1 3
10 7
6 73
