28

5 13
14
2 11
2 4
1 7
3 3
0 5
3 3
2 5
4 4
2 12
2 4
0 10
0 1
2 12
1 5
3 123

14 5
10
3 3
8 0
1 3
13 4
11 4
13 1
5 4
8 2
6 3
4 2
14 110

4 6
13
1 5
0 4
1 0
3 3
2 0
3 4
1 4
0 5
2 5
0 0
3 3
0 3
0 4
20 31

1 1
13
0 0
0 0
0 0
0 0
0 0
0 0
0 0
0 0
0 0
0 0
0 0
0 0
0 0
15 101

6 16
13
1 9
3 10
3 5
0 10
1 10
3 3
1 6
2 13
5 8
5 14
4 12
4 13
2 12
2 187

5 1
19
2 0
3 0
1 0
4 0
4 0
3 0
2 0
3 0
2 0
0 0
0 0
3 0
1 0
1 0
3 0
3 0
2 0
0 0
1 0
7 86

8 12
1
1 7
1 178

6 10
8
4 4
5 3
0 3
3 5
2 3
1 1
5 2
5 3
15 53

11 17
8
7 5
6 5
1 1
6 1
1 7
5 2
8 12
5 2
15 5

6 15
3
3 8
1 3
5 1
10 31

12 7
3
2 4
0 5
1 5
2 107

6 18
16
1 5
5 7
2 12
1 1
1 15
2 15
0 0
0 0
4 9
1 2
3 13
5 14
1 6
1 17
0 9
5 3
9 106

7 19
20
1 15
2 6
4 9
0 8
1 17
5 15
4 2
1 6
4 17
4 6
0 18
1 12
2 12
4 0
0 10
5 9
0 0
0 18
6 11
6 5
15 84

9 14
20
5 9
6 2
1 10
5 13
0 13
3 1
7 8
8 1
5 0
2 4
0 10
1 11
3 13
4 12
6 0
0 13
0 10
7 0
5 9
7 1
18 3

18 9
6
8 2
11 4
16 1
14 1
14 1
16 2
1 175

20 17
1
6 5
16 86

17 6
20
0 1
3 2
14 2
14 0
13 3
13 4
0 4
13 4
16 5
8 4
11 2
14 0
1 2
7 2
2 2
2 5
7 1
15 2
5 2
7 3
2 32

7 20
18
3 3
6 12
6 17
2 12
6 3
0 3
3 3
4 9
6 12
2 0
2 1
4 0
1 5
1 19
1 11
6 5
0 18
2 14
4 52

6 14
8
0 6
0 10
4 6
2 13
5 8
0 11
1 0
3 2
10 111

11 10
8
8 3
5 1
4 2
0 5
1 8
1 9
9 9
4 3
8 100

8 5
14
3 2
4 2
6 3
2 4
0 3
4 0
5 2
2 4
7 3
0 1
7 2
2 3
2 2
0 0
20 173

4 15
19
1 1
1 3
1 12
2 1
0 13
0 3
0 9
2 0
2 2
2 1
0 2
2 3
2 2
1 0
0 14
1 0
1 13
2 13
0 9
1 142

1 17
5
0 13
0 7
0 11
0 9
0 5
9 6

10 16
15
3 6
3 4
3 9
4 14
6 13
9 6
7 10
2 3
9 3
2 10
6 3
9 7
4 8
3 15
9 9
13 188

17 10
12
6 2
12 4
9 1
3 8
16 0
14 6
2 5
13 9
5 3
7 4
8 6
14 6
16 120

7 7
12
4 5
3 1
4 0
1 1
0 6
5 0
2 4
1 1
1 3
2 2
3 5
3 4
3 147

12 3
18
8 0
1 0
7 0
9 0
8 1
9 0
3 2
5 1
4 1
0 0
8 1
2 0
1 2
0 2
11 1
7 0
11 0
8 2
5 172

10 8
10
8 0
9 1
9 0
3 2
8 5
2 4
0 6
0 6
6 5
8 4
3 49
